{
    "log": {
        "access": "/dev/null",
        "error": "/dev/null",
        "loglevel": "none"
    },
    "inbounds": [
        {
            "port": 8080,
            "protocol": "vless",
            "settings": {
                "clients": [
                    {
                        "id": "2fca697f-5068-443d-bd6b-3a8d68b2f3da",
                        "flow": "xtls-rprx-direct"
                    }
                ],
                "decryption": "none",
                "fallbacks": [
                    {
                        "dest": 3001
                    },
                    {
                        "path": "/vless",
                        "dest": 3002
                    },
                    {
                        "path": "/vmess",
                        "dest": 3003
                    },
                    {
                        "path": "/trojan",
                        "dest": 3004
                    },
                    {
                        "path": "/shadowsocks",
                        "dest": 3005
                    }
                ]
            },
            "streamSettings": {
                "network": "tcp"
            }
        },
        {
            "port": 3001,
            "listen": "127.0.0.1",
            "protocol": "vless",
            "settings": {
                "clients": [
                    {
                        "id": "2fca697f-5068-443d-bd6b-3a8d68b2f3da"
                    }
                ],
                "decryption": "none"
            },
            "streamSettings": {
                "network": "ws",
                "security": "none"
            }
        },
        {
            "port": 3002,
            "listen": "127.0.0.1",
            "protocol": "vless",
            "settings": {
                "clients": [
                    {
                        "id": "2fca697f-5068-443d-bd6b-3a8d68b2f3da",
                        "level": 0
                    }
                ],
                "decryption": "none"
            },
            "streamSettings": {
                "network": "ws",
                "security": "none",
                "wsSettings": {
                    "path": "/vless"
                }
            },
            "sniffing": {
                "enabled": true,
                "destOverride": [
                    "http",
                    "tls",
                    "quic"
                ],
                "metadataOnly": false
            }
        },
        {
            "port": 3003,
            "listen": "127.0.0.1",
            "protocol": "vmess",
            "settings": {
                "clients": [
                    {
                        "id": "2fca697f-5068-443d-bd6b-3a8d68b2f3da",
                        "alterId": 0
                    }
                ]
            },
            "streamSettings": {
                "network": "ws",
                "wsSettings": {
                    "path": "/vmess"
                }
            },
            "sniffing": {
                "enabled": true,
                "destOverride": [
                    "http",
                    "tls",
                    "quic"
                ],
                "metadataOnly": false
            }
        },
        {
            "port": 3004,
            "listen": "127.0.0.1",
            "protocol": "trojan",
            "settings": {
                "clients": [
                    {
                        "password": "2fca697f-5068-443d-bd6b-3a8d68b2f3da"
                    }
                ]
            },
            "streamSettings": {
                "network": "ws",
                "security": "none",
                "wsSettings": {
                    "path": "/trojan"
                }
            },
            "sniffing": {
                "enabled": true,
                "destOverride": [
                    "http",
                    "tls",
                    "quic"
                ],
                "metadataOnly": false
            }
        },
        {
            "port": 3005,
            "listen": "127.0.0.1",
            "protocol": "shadowsocks",
            "settings": {
                "clients": [
                    {
                        "method": "chacha20-ietf-poly1305",
                        "password": "2fca697f-5068-443d-bd6b-3a8d68b2f3da"
                    }
                ],
                "decryption": "none"
            },
            "streamSettings": {
                "network": "ws",
                "wsSettings": {
                    "path": "/shadowsocks"
                }
            },
            "sniffing": {
                "enabled": true,
                "destOverride": [
                    "http",
                    "tls",
                    "quic"
                ],
                "metadataOnly": false
            }
        }
    ],
    "outbounds": [
        {
            "protocol": "freedom",
            "settings": {}
        },
        {
            "tag": "WARP",
            "protocol": "wireguard",
            "settings": {
                "secretKey": "GAl2z55U2UzNU5FG+LW3kowK+BA/WGMi1dWYwx20pWk=",
                "address": [
                    "172.16.0.2/32",
                    "2606:4700:110:8f0a:fcdb:db2f:3b3:4d49/128"
                ],
                "peers": [
                    {
                        "publicKey": "bmXOC+F1FxEMF9dyiK2H5/1SUtzH0JuVo51h2wPfgyo=",
                        "endpoint": "engage.cloudflareclient.com:2408"
                    }
                ]
            }
        }
    ],
    "routing": {
        "domainStrategy": "AsIs",
        "rules": [
            {
                "type": "field",
                "domain": [
                    "domain:openai.com",
                    "domain:ai.com"
                ],
                "outboundTag": "WARP"
            }
        ]
    },
    "dns": {
        "server": [
            "8.8.8.8",
            "8.8.4.4"
        ]
    }
}
